<?xml version="1.0" encoding="utf-8"?>
<!-- Generator: Adobe Illustrator 23.0.3, SVG Export Plug-In . SVG Version: 6.00 Build 0)  -->
<svg version="1.1" id="Layer_1" xmlns="http://www.w3.org/2000/svg" xmlns:xlink="http://www.w3.org/1999/xlink" x="0px" y="0px"
	 viewBox="0 0 223 177" style="enable-background:new 0 0 223 177;" xml:space="preserve">
<style type="text/css">
	.st0{fill-rule:evenodd;clip-rule:evenodd;fill:#171717;}
	.st1{fill-rule:evenodd;clip-rule:evenodd;fill:#FFFFFF;}
	.st2{fill-rule:evenodd;clip-rule:evenodd;fill:#FFC03A;}
</style>
<path class="st0" d="M59,38.8l96.9-30.2c10.7-3.3,21.2-1.5,23.3,4.6l39.7,112.4c6.4,18.1-6.5,35.9-28.3,37.4L18.8,175
	c-11.6,0.8-16.3-10.5-11.5-24.1l34.6-97.3C44,47.6,51.5,41.1,59,38.8z"/>
<path class="st1" d="M181.8,71.6c2.3,0,4.2-1.8,4.2-4.1v-8.2c0-2.3-1.9-4.1-4.2-4.1h-50.4H123c-2.3,0-4.2,1.8-4.2,4.1v8.2v57.6v8.2
	c0,2.3,1.9,4.1,4.2,4.1h8.4h58.8c2.3,0,4.2-1.8,4.2-4.1v-8.2c0-2.3-1.9-4.1-4.2-4.1h-54.6V71.6H181.8z"/>
<path class="st2" d="M53.3,55.1c-2.3,0-4.2,1.8-4.2,4.1v8.2c0,2.3,1.9,4.1,4.2,4.1h46.2v61.8c0,2.3,1.9,4.1,4.2,4.1h8.4
	c2.3,0,4.2-1.8,4.2-4.1V67.5v-8.2c0-2.3-1.9-4.1-4.2-4.1h-8.4H53.3V55.1z"/>
</svg>
