<?xml version="1.0" encoding="utf-8"?>
<!-- Generator: Adobe Illustrator 21.1.0, SVG Export Plug-In . SVG Version: 6.00 Build 0)  -->
<svg version="1.1" id="Layer_1" xmlns="http://www.w3.org/2000/svg" xmlns:xlink="http://www.w3.org/1999/xlink" x="0px" y="0px"
	 viewBox="0 0 500 500" style="enable-background:new 0 0 500 500;" xml:space="preserve">
<style type="text/css">
	.st0{fill:#35FA00;}
	.st1{fill:#072600;}
</style>
<g id="XMLID_25_">
	<rect id="XMLID_27_" x="0" class="st0" width="500" height="500"/>
	<rect id="XMLID_31_" x="22.1" y="22.1" class="st1" width="456" height="456"/>
	<path id="XMLID_34_" class="st0" d="M67.8,123.3c0-1.4,0.3-2.1,2.1-2.5c17.3-0.7,38.6-1.1,57.3-1.1c64.8,0,97.4,44.4,97.4,110.4
		c0,98.1-64.2,115.6-103.2,115.6c-20.4,0-35.2-0.4-51.6-0.7c-1.4,0-2.1-0.7-2.1-3.2V123.3H67.8z M102.5,312.9
		c5.2,0.4,12.1,0.4,20,0.4c40.1,0,66.4-25.1,66.4-81.9c0-51.9-22.6-78.5-61.9-78.5c-12.9,0-22.1,0.4-24.7,0.7v159.3H102.5z"/>
	<path id="XMLID_35_" class="st0" d="M370,347.1c-1.9,0-2.5-0.7-3.2-2.7c-15.8-76.7-21.1-105.6-24-121.8h-0.3
		c-2.9,17.3-9.6,47.8-27.3,121.8c-0.5,2.1-1.4,2.7-3.2,2.7H281c-2.5,0-3.2-1.1-3.7-3.2l-36.8-161.4c-0.5-1.8,0-2.7,1.6-2.7h30.1
		c1.6,0,2.2,0.4,2.5,2.1c19.2,89,23.2,114.2,25.1,126.6h0.5c1.1-5.9,8.2-41.6,26.7-125.9c0.3-2.1,0.5-2.7,2.5-2.7h30.1
		c1.4,0,1.9,0.7,2.2,2.1c18.4,87.7,22.7,115.2,24.8,127.7h0.5c3.4-20.3,8.8-53.3,26.2-127.3c0.3-1.8,1.1-2.5,2.2-2.5h27.8
		c1.1,0,1.9,0.7,1.6,2.5l-40.8,162.1c-0.5,2.1-0.8,2.7-3.2,2.7L370,347.1L370,347.1z"/>
</g>
</svg>
