<?xml version="1.0" encoding="utf-8"?>
<!-- Generator: Adobe Illustrator 21.1.0, SVG Export Plug-In . SVG Version: 6.00 Build 0)  -->
<svg version="1.1" id="Layer_1" xmlns="http://www.w3.org/2000/svg" xmlns:xlink="http://www.w3.org/1999/xlink" x="0px" y="0px"
	 viewBox="0 0 4343.1 4217.2" style="enable-background:new 0 0 4343.1 4217.2;" xml:space="preserve">
<style type="text/css">
	.st0{fill:#EB43A3;}
	.st1{fill:#412534;}
	.st2{opacity:0.302;enable-background:new    ;}
</style>
<path class="st0" d="M14.8,6.9h4317.6V4212H14.8V6.9z"/>
<path class="st1" d="M343.7,344.5h3651.2v3530H343.7V344.5z"/>
<path class="st2" d="M3129.7,1114.4l-173.1,778.7l-1280.6-683.5l-112.5,804.7L1347.3,2992l1254.6,882.6H3995V1746.1L3129.7,1114.4z
	 M343.7,344.4h3651.2v121.1H343.7V344.4z"/>
<g>
	<path class="st0" d="M1680.6,1209.6v1781.6h-325.1V1209.6H1680.6z M3121.2,1114.4V2629c0,132.2,5.3,274.9,10.6,362.1H2841
		l-13.2-203.5h-5.3c-76.6,142.7-232.6,232.6-420.3,232.6c-306.6,0-549.8-261.7-549.8-658.2c-2.6-430.9,267-687.3,576.3-687.3
		c177.1,0,304,74,362.1,169.2h5.3v-729.6H3121.2z M2796,2240.5c0-26.4-2.7-58.2-7.9-84.6c-29.1-126.9-132.2-230-280.2-230
		c-208.8,0-325.1,185-325.1,425.6c0,235.2,116.3,407.1,322.5,407.1c132.2,0,248.5-89.9,280.2-230c7.9-29.1,10.6-60.8,10.6-95.2
		L2796,2240.5L2796,2240.5z"/>
</g>
</svg>
