<?xml version="1.0" encoding="utf-8"?>
<!-- Generator: Adobe Illustrator 21.1.0, SVG Export Plug-In . SVG Version: 6.00 Build 0)  -->
<svg version="1.1" id="Layer_1" xmlns="http://www.w3.org/2000/svg" xmlns:xlink="http://www.w3.org/1999/xlink" x="0px" y="0px"
	 viewBox="0 0 512 512" style="enable-background:new 0 0 512 512;" xml:space="preserve">
<style type="text/css">
	.st0{fill:none;stroke:#3EB575;stroke-width:30;stroke-linecap:round;stroke-linejoin:round;stroke-miterlimit:10;}
	.st1{fill:#3EB575;}
</style>
<polyline class="st0" points="23.6,23 23.6,492 484.4,492 "/>
<polyline class="st0" points="94,395.9 196.7,275.5 270.4,331.4 411,152.6 "/>
<polygon class="st1" points="344.6,123.5 471.3,80 461.6,210.2 "/>
</svg>
