<?xml version="1.0" encoding="utf-8"?>
<!-- Generator: Adobe Illustrator 21.1.0, SVG Export Plug-In . SVG Version: 6.00 Build 0)  -->
<svg version="1.1" id="Capa_1" xmlns="http://www.w3.org/2000/svg" xmlns:xlink="http://www.w3.org/1999/xlink" x="0px" y="0px"
	 viewBox="0 0 490 85" style="enable-background:new 0 0 490 85;" xml:space="preserve">
<style type="text/css">
	.st0{fill:#EDB828;}
</style>
<g>
	<path class="st0" d="M85.2,29.2l-24.2-2.3c-1.5-0.1-2.8-1.1-3.5-2.6l-8.7-21c-1.4-3.5-6.3-3.5-7.7,0l-8.6,21
		c-0.6,1.5-1.9,2.4-3.5,2.6L4.8,29.2c-3.6,0.3-5.1,4.9-2.4,7.3l18.3,16c1.2,1,1.7,2.6,1.3,4.1l-5.5,22.5c-0.8,3.5,3,6.5,6.2,4.6
		l20.2-11.9c1.3-0.8,2.9-0.8,4.2,0l20.2,11.9c3.2,1.9,7-1,6.2-4.6l-5.4-22.5c-0.3-1.5,0.1-3.1,1.3-4.1l18.3-16
		C90.3,34.1,88.8,29.6,85.2,29.2z"/>
</g>
<g>
	<path class="st0" d="M485.2,29.2l-24.2-2.3c-1.5-0.1-2.8-1.1-3.5-2.6l-8.7-21c-1.4-3.5-6.3-3.5-7.7,0l-8.6,21
		c-0.6,1.5-1.9,2.4-3.5,2.6l-24.2,2.3c-3.6,0.3-5.1,4.9-2.4,7.3l18.3,16c1.2,1,1.7,2.6,1.3,4.1l-5.5,22.5c-0.8,3.5,3,6.5,6.2,4.6
		l20.2-11.9c1.3-0.8,2.9-0.8,4.2,0l20.2,11.9c3.2,1.9,7-1,6.2-4.6l-5.4-22.5c-0.3-1.5,0.1-3.1,1.3-4.1l18.3-16
		C490.3,34.1,488.8,29.6,485.2,29.2z"/>
</g>
<g>
	<path class="st0" d="M185.2,29.2l-24.2-2.3c-1.5-0.1-2.8-1.1-3.5-2.6l-8.7-21c-1.4-3.5-6.3-3.5-7.7,0l-8.6,21
		c-0.6,1.5-1.9,2.4-3.5,2.6l-24.2,2.3c-3.6,0.3-5.1,4.9-2.4,7.3l18.3,16c1.2,1,1.7,2.6,1.3,4.1l-5.5,22.5c-0.8,3.5,3,6.5,6.2,4.6
		l20.2-11.9c1.3-0.8,2.9-0.8,4.2,0l20.2,11.9c3.2,1.9,7-1,6.2-4.6l-5.4-22.5c-0.3-1.5,0.1-3.1,1.3-4.1l18.3-16
		C190.3,34.1,188.8,29.6,185.2,29.2z"/>
</g>
<g>
	<path class="st0" d="M385.2,29.2l-24.2-2.3c-1.5-0.1-2.8-1.1-3.5-2.6l-8.7-21c-1.4-3.5-6.3-3.5-7.7,0l-8.6,21
		c-0.6,1.5-1.9,2.4-3.5,2.6l-24.2,2.3c-3.6,0.3-5.1,4.9-2.4,7.3l18.3,16c1.2,1,1.7,2.6,1.3,4.1l-5.5,22.5c-0.8,3.5,3,6.5,6.2,4.6
		l20.2-11.9c1.3-0.8,2.9-0.8,4.2,0l20.2,11.9c3.2,1.9,7-1,6.2-4.6l-5.4-22.5c-0.3-1.5,0.1-3.1,1.3-4.1l18.3-16
		C390.3,34.1,388.8,29.6,385.2,29.2z"/>
</g>
<g>
	<path class="st0" d="M285.2,29.2l-24.2-2.3c-1.5-0.1-2.8-1.1-3.5-2.6l-8.7-21c-1.4-3.5-6.3-3.5-7.7,0l-8.6,21
		c-0.6,1.5-1.9,2.4-3.5,2.6l-24.2,2.3c-3.6,0.3-5.1,4.9-2.4,7.3l18.3,16c1.2,1,1.7,2.6,1.3,4.1l-5.5,22.5c-0.8,3.5,3,6.5,6.2,4.6
		l20.2-11.9c1.3-0.8,2.9-0.8,4.2,0l20.2,11.9c3.2,1.9,7-1,6.2-4.6l-5.4-22.5c-0.3-1.5,0.1-3.1,1.3-4.1l18.3-16
		C290.3,34.1,288.8,29.6,285.2,29.2z"/>
</g>
</svg>
