<?xml version="1.0" encoding="utf-8"?>
<!-- Generator: Adobe Illustrator 21.1.0, SVG Export Plug-In . SVG Version: 6.00 Build 0)  -->
<svg version="1.1"
	 id="svg2" inkscape:version="0.91 r13725" sodipodi:docname="Microsoft_Office_2013_logo_and_wordmark.svg" xmlns:cc="http://creativecommons.org/ns#" xmlns:dc="http://purl.org/dc/elements/1.1/" xmlns:inkscape="http://www.inkscape.org/namespaces/inkscape" xmlns:rdf="http://www.w3.org/1999/02/22-rdf-syntax-ns#" xmlns:sodipodi="http://sodipodi.sourceforge.net/DTD/sodipodi-0.dtd" xmlns:svg="http://www.w3.org/2000/svg"
	 xmlns="http://www.w3.org/2000/svg" xmlns:xlink="http://www.w3.org/1999/xlink" x="0px" y="0px" viewBox="0 0 658 212.8"
	 style="enable-background:new 0 0 658 212.8;" xml:space="preserve">
<style type="text/css">
	.st0{fill:#EB3C00;}
</style>
<title  id="title4310">Microsoft Office logos</title>
<sodipodi:namedview  bordercolor="#666666" borderopacity="1" gridtolerance="10" guidetolerance="10" id="namedview24" inkscape:current-layer="svg2" inkscape:cx="84.207061" inkscape:cy="23.817222" inkscape:pageopacity="0" inkscape:pageshadow="2" inkscape:showpageshadow="false" inkscape:window-height="705" inkscape:window-maximized="1" inkscape:window-width="1366" inkscape:window-x="-8" inkscape:window-y="-8" inkscape:zoom="1" objecttolerance="10" pagecolor="#ffffff" showgrid="false">
	</sodipodi:namedview>
<g id="g4" transform="matrix(0.47823591,0,0,0.46153107,-101.58783,-251.74932)">
	<g id="g6" transform="matrix(1.8232952,0,0,1.8232952,-597.71681,-124.12247)">
		<g id="g8" transform="translate(0,-91.137241)">
			<g id="g10" transform="matrix(0.74069815,0,0,0.74069815,98.5698,-8.2505871)">
				<path id="path12" inkscape:connector-curvature="0" class="st0" d="M474.7,895.7V702.2L646,638.9l93.1,29.8v260.6l-93.1,28
					L474.7,895.7L646,916.3V691l-111.7,26.1v152.6L474.7,895.7z"/>
				<path id="path14" inkscape:connector-curvature="0" class="st0" d="M921.4,897.1c-27,0-48.5-8.9-64.8-26.6
					c-16.2-17.8-24.3-40.9-24.3-69.3c0-30.6,8.3-55,24.8-73.2c16.5-18.2,39-27.3,67.5-27.3c26.2,0,47.4,8.8,63.4,26.5
					c16,17.7,24.1,40.8,24.1,69.3c0,31-8.2,55.5-24.7,73.6C970.9,888.1,948.9,897.1,921.4,897.1L921.4,897.1z M923,720.8
					c-20,0-36.2,7.2-48.6,21.6c-12.5,14.4-18.7,33.3-18.7,56.7c0,23.4,6.1,42.3,18.2,56.5c12.2,14.3,28,21.4,47.5,21.4
					c20.9,0,37.3-6.8,49.3-20.4c12-13.6,18-32.7,18-57.1c0-25.1-5.8-44.5-17.5-58.2C959.5,727.6,943.5,720.8,923,720.8L923,720.8z"
					/>
				<path id="path16" inkscape:connector-curvature="0" class="st0" d="M1091.2,690c-12.3,0-22.5,4.2-30.7,12.4
					c-8.2,8.3-12.3,19.5-12.3,33.7v22h-23.1v18.6h23.1v117.1h21.6V776.8h52.9v117.1h21.6V776.8h31.8v-18.6h-31.8v-20.9
					c0-19.2,7.6-28.7,22.8-28.7c5.4,0,10.2,1.1,14.4,3.5v-19.5c-3.9-1.6-9.1-2.4-15.7-2.4c-12.3,0-22.6,4.2-30.8,12.4
					c-8.2,8.3-12.3,19.5-12.3,33.7v22h-52.9v-20.9c0-19.2,7.6-28.7,22.8-28.7c5.4,0,10.2,1.1,14.4,3.5v-19.5
					C1103.2,690.9,1097.9,690,1091.2,690L1091.2,690z"/>
				<path id="path18" inkscape:connector-curvature="0" class="st0" d="M1207.8,723.7c-3.9,0-7.2-1.3-9.9-4c-2.7-2.7-4.1-6-4.1-10.1
					c0-4.1,1.4-7.4,4.1-10.1c2.7-2.7,6.1-4,9.9-4c4,0,7.4,1.3,10.1,4c2.8,2.7,4.2,6.1,4.2,10.1c0,3.9-1.4,7.2-4.2,9.9
					C1215.1,722.3,1211.7,723.7,1207.8,723.7L1207.8,723.7z M1218.4,893.9h-21.7V758.1h21.7V893.9z"/>
				<path id="path20" inkscape:connector-curvature="0" class="st0" d="M1341.9,887.7c-10.4,6.3-22.8,9.4-37.1,9.4
					c-19.4,0-35-6.3-46.9-18.9c-11.9-12.6-17.8-28.9-17.8-49c0-22.4,6.4-40.3,19.2-53.9c12.8-13.6,29.9-20.3,51.3-20.3
					c11.9,0,22.4,2.2,31.5,6.6v22.3c-10.1-7.1-20.9-10.6-32.3-10.6c-13.9,0-25.3,5-34.1,14.9c-8.9,9.9-13.3,23-13.3,39.2
					c0,15.9,4.2,28.5,12.5,37.6c8.4,9.2,19.6,13.8,33.6,13.8c11.8,0,23-3.9,33.4-11.8L1341.9,887.7z"/>
				<path id="path22" inkscape:connector-curvature="0" class="st0" d="M1474.8,831.5h-95.8c0.4,15.1,4.4,26.8,12.2,35
					c7.8,8.2,18.5,12.3,32.1,12.3c15.3,0,29.3-5,42.2-15.1v20.4c-11.9,8.7-27.7,13-47.3,13c-19.2,0-34.2-6.2-45.2-18.5
					c-11-12.3-16.4-29.7-16.4-52c0-21.1,6-38.3,18-51.6s26.8-19.9,44.6-19.9c17.8,0,31.5,5.7,41.2,17.2s14.6,27.4,14.6,47.9
					L1474.8,831.5z M1452.5,813c-0.1-12.5-3.1-22.3-9.1-29.3c-6-7-14.2-10.5-24.9-10.5c-10.3,0-19,3.7-26.1,11
					c-7.2,7.3-11.6,16.9-13.3,28.8L1452.5,813z"/>
			</g>
		</g>
	</g>
</g>
</svg>
